C:\Users\Lina\Documents\other\tests\WeatherForecast_4HW\src\test\java\repositories\WeatherRepositoryTest.java
C:\Users\Lina\Documents\other\tests\WeatherForecast_4HW\src\test\java\IOoperations\FileProcessorTest.java
C:\Users\Lina\Documents\other\tests\WeatherForecast_4HW\src\test\java\repositories\ForecastWeatherRepositoryTest.java
C:\Users\Lina\Documents\other\tests\WeatherForecast_4HW\src\test\java\repositories\CurrentWeatherRepositoryTest.java
