C:\Users\Lina\Documents\other\tests\WeatherForecast_4HW\src\test\java\repositories\CurrentWeatherRepositoryMockTest.java
C:\Users\Lina\Documents\other\tests\WeatherForecast_4HW\src\main\java\weather\WeatherRequest.java
C:\Users\Lina\Documents\other\tests\WeatherForecast_4HW\src\main\java\requestHelper\JSONRequester.java
C:\Users\Lina\Documents\other\tests\WeatherForecast_4HW\src\main\java\IOoperations\ConsoleProcessor.java
C:\Users\Lina\Documents\other\tests\WeatherForecast_4HW\src\main\java\repositories\ForecastWeatherRepository.java
C:\Users\Lina\Documents\other\tests\WeatherForecast_4HW\src\main\java\IOoperations\InputProcessor.java
C:\Users\Lina\Documents\other\tests\WeatherForecast_4HW\src\main\java\reports\CurrentWeatherReport.java
C:\Users\Lina\Documents\other\tests\WeatherForecast_4HW\src\test\java\repositories\WeatherRepositoryTest.java
C:\Users\Lina\Documents\other\tests\WeatherForecast_4HW\src\main\java\IOoperations\FileProcessor.java
C:\Users\Lina\Documents\other\tests\WeatherForecast_4HW\src\test\java\IOoperations\FileProcessorTest.java
C:\Users\Lina\Documents\other\tests\WeatherForecast_4HW\src\main\java\reports\ForecastWeatherReport.java
C:\Users\Lina\Documents\other\tests\WeatherForecast_4HW\src\main\java\main\Main.java
C:\Users\Lina\Documents\other\tests\WeatherForecast_4HW\src\test\java\repositories\ForecastWeatherRepositoryMockTest.java
C:\Users\Lina\Documents\other\tests\WeatherForecast_4HW\src\main\java\reports\WeatherReport.java
C:\Users\Lina\Documents\other\tests\WeatherForecast_4HW\src\test\java\repositories\ForecastWeatherRepositoryTest.java
C:\Users\Lina\Documents\other\tests\WeatherForecast_4HW\src\test\java\repositories\CurrentWeatherRepositoryTest.java
C:\Users\Lina\Documents\other\tests\WeatherForecast_4HW\src\main\java\repositories\CurrentWeatherRepository.java
C:\Users\Lina\Documents\other\tests\WeatherForecast_4HW\src\main\java\repositories\WeatherRepository.java
